com\serialization\Koala.class
com\serialization\Marketplace.class
com\model\CreateCustomerLot.class
com\model\Payment.class
services\CustomerServices.class
services\EmployeeServices.class
com\model\Inventory.class
com\model\OfferMarket.class
com\model\CreateOffer.class
com\model\Employee.class
com\model\CreatePayment.class
com\model\Car.class
com\model\Offer.class
com\model\CreateUser.class
ui\KoalifiedDriver.class
com\model\Customer.class
com\model\CustomerLot.class
